 ____ ___     _________      _______ ___________________
|    |   \   /   _____/      \      \\______   \_   ___ \
|    |   /   \_____  \       /   |   \|       _/    \  \/
|    |  /    /        \     /    |    \    |   \     \____
|______/ /\ /_______  / /\  \____|__  /____|_  /\______  /
         \/         \/  \/          \/       \/        \/


____________________   ____________ __________        |_|_|_|
\_   _____/  _  \   \ /   /\_____  \\______   \      /| | | |\
 |    __)/  /_\  \   Y   /  /   |   \|       _/    _/_|_|_|_|_\_
 |     \/    |    \     /  /    |    \    |   \     | | | | | |
 \___  /\____|__  /\___/   \_______  /____|_  /     | | | | | |
     \/         \/                 \/       \/    __|_|_|_|_|_|__
                                                    | | | | | |
                                                    | | | | | |
                                                    |_|_|_|_|_|
                                                    \         /
                                                     \_______/
